fsm/simulator.vcd
$date
    Wed Jan 25 19:50:13 2017
$end
$version
    MyHDL 0.9.0
$end
$timescale
    1ns
$end

$scope module simulator $end
$var real 1 ! curr_state $end
$var reg 1 " reset $end
$var reg 1 # stopFlag $end
$var reg 1 $ clk $end
$scope module themachine $end
$var reg 1 " reset $end
$var reg 1 # stopFlag $end
$var reg 1 $ clk $end
$var reg 1 % downcontrol $end
$var real 1 ! state $end
$var reg 1 & upcontrol $end
$upscope $end
$upscope $end

$enddefinitions $end
$dumpvars
sGOINGUP !
1"
0#
0$
0%
0&
$end
#10
1$
1&
#20
0$
#30
1$
#40
0$
#50
1$
#60
0$
#70
1$
1#
#80
0$
#90
1$
sUP !
#100
0$
#110
1$
0&
sSTOP !
#120
0$
#130
1$
0#
sGOINGDOWN !
#140
0$
#150
1$
1%
#160
0$
#170
1$
#180
0$
#190
1$
#200
0$
#210
1$
1#
#220
0$
#230
1$
sDOWN !
#240
0$
#250
1$
0%
sSTOP !
